{
    "mesh": "./example/4c_slab",
    "solver": {
        "beqm": 1,
        "dt": 20,
        "ts": 1,
        "stol": 1e-09,
        "lumping": true,
        "opsplit": true
    },
    "domains": {
        "atria": {
            "EP": {
                "model": "COURTEMANCHE",
                "modelpar": "g_Na+75%",
                "plugs": null,
                "plugspar": null,
                "bcl": 600.0,
                "init": "./init/atria_COURTEMANCHE_bcl_600.0.sv",
                "mutable": false
            },
            "CV": {
                "dx": 250,
                "CVref": {
                    "vf": 1.2,
                    "vs": 0.6,
                    "vn": 0.4
                },
                "CVmeas": {
                    "vf": 1.2000104880916662,
                    "vs": 0.6000312196243571,
                    "vn": 0.4000292021317557
                },
                "G": {
                    "gil": 1.6372377587739877,
                    "gel": 1.6927174276858106,
                    "git": 0.49086836202435474,
                    "get": 0.4654062353725541,
                    "gin": 0.2601653127107359,
                    "gen": 0.23597990266788132,
                    "surf2vol": 0.2
                },
                "mutable": true 
            }
        },
        "atria-af": {
            "EP": {
                "model": "COURTEMANCHE",
                "modelpar": "g_CaL-55%,g_K1+100%,blf_i_Kur-50%,g_to-65%,g_Ks+100%,maxI_pCa+50%,maxI_NaCa+60%,g_Kr*1.6",
                "plugs": null,
                "plugspar": null,
                "bcl": 600.0,
                "init": "./init/atria-af_COURTEMANCHE_bcl_600.0.sv",
                "mutable": false
            },
            "CV": {
                "dx": 250,
                "CVref": {
                    "vf": 0.5,
                    "vs": 0.3,
                    "vn": 0.3
                },
                "CVmeas": {
                    "vf": 0.5000032375209629,
                    "vs": 0.30000120450483614,
                    "vn": 0.30000120450483614
                },
                "G": {
                    "gil": 0.6335148902388342,
                    "gel": 0.4594859566653686,
                    "git": 0.13050591572373446,
                    "get": 1.6210338648127165,
                    "gin": 0.13050591572373446,
                    "gen": 1.6210338648127165,
                    "surf2vol": 0.2
                },
                "mutable": false
            }
        },
        "vent-norm": {
            "EP": {
                "model": "TT2",
                "modelpar": null,
                "plugs": null,
                "plugspar": null,
                "bcl": 600.0,
                "init": "./init/vent-norm_TT2_bcl_600.0.sv",
                "mutable": false
            },
            "CV": {
                "dx": 250,
                "CVref": {
                    "vf": 0.7,
                    "vs": 0.4,
                    "vn": 0.3
                },
                "CVmeas": {
                    "vf": 0.7000845247050902,
                    "vs": 0.4000448290235404,
                    "vn": 0.30003221745951075
                },
                "G": {
                    "gil": 0.3151040556097863,
                    "gel": 0.625,
                    "git": 0.1276703046500294,
                    "get": 0.236,
                    "gin": 0.06905074738830183,
                    "gen": 0.236,
                    "surf2vol": 0.14
                },
                "mutable": false
            }
        },
        "vent-bz": {
            "EP": {
                "model": "TT2",
                "modelpar": "GNa-62%,GCaL-69%,Gkr-70%,Gks-80%",
                "plugs": null,
                "plugspar": null,
                "bcl": 600.0,
                "init": "./init/vent-bz_TT2_bcl_600.0.sv",
                "mutable": false
            },
            "CV": {
                "dx": 250,
                "CVref": {
                    "vf": 0.4,
                    "vs": 0.15,
                    "vn": 0.15
                },
                "CVmeas": {
                    "vf": 0.4000908686380851,
                    "vs": 0.14991549076391272,
                    "vn": 0.14991549076391272
                },
                "G": {
                    "gil": 0.19570967271119807,
                    "gel": 0.625,
                    "git": 0.04004709986648943,
                    "get": 0.236,
                    "gin": 0.04004709986648943,
                    "gen": 0.236,
                    "surf2vol": 0.14
                },
                "mutable": false
            }
        },
        "isolation": {
            "EP": null,
            "CV": {
                "G": {
                    "gbath": 1.0
                }
            }
        }
    },
    "electrodes": {
        "RV-Apex": {
            "VTXLST": "./example/RV_apex"
        },
        "Sinus": {
            "VTXLST": "./example/SA_node"
        }
    },
    "protocols": {
        "prepace": {
            "propagation": "re",
            "bcl": 600,
            "cycles": 2,
            "electrodes": [
                "RV-Apex",
                "Sinus"
            ],
            "rel-timings": [
                15,
                0
            ],
            "lat": null
        }
    }
}
