{
  "LV": {
      "tags": [10,14],
      "func": "lv-norm"
  },
  "LV_FCL": null,
  "RV": {
      "tags": [15, 18, 19],
      "func": "rv-norm"
  },
  "RV_FCL": null,
  "LA": {
      "tags": [30,31],
      "func": "la-norm"
  },
  "RA":  {
      "tags": [40, 41, 42, 43 ],
      "func": "la-norm"
  },
  "FO": {
      "tags": [  ],
      "func": "la-norm"
  },
  "FO_RIM":  {
      "tags": [ 36 ],
      "func": "la-norm"
  },
  "SIN": {
      "tags": [ 38 ],
      "func": "la-norm"
  },
  "SIN_BLOCK": {
      "tags": [ 39 ],
      "func": "la-norm"
  },
  "BACH_BNDL": {
      "tags": [ 32 ],
      "func": "la-norm"
  },
  "PECT_MSCL": {
      "tags": [ 34 ],
      "func": "la-norm"
  },
  "CRST_TERM": {
      "tags": [ 37 ],
      "func": "la-norm"
  },
  "BATH": {
      "tags" : [0, 35, 111, 113, 116, 117, 132, 142, 200],
      "func" : "torso"
  }    
}
